Chapter 5 Foundation of Inference | Basic Statistics and Data Analysis: Korean Version
…
## 
## 	Pearson's Chi-squared test
## 
## data:  model1
## X-squared = 3109.4, df = 12, p-value < 2.2e-16

여기서는 개인 수준의 자료를 이용하여 교차표를 만들었습니다. 교차표를 하나의 데이터로 만들어 사용할 수도 있습니다.

premade.table <- as_tibble(as.data.frame(table(anes.nomissing$pid_x, 
                                               anes.nomissing$presvote2012_x)))

# Examine summary table
premade.table

## # A tibble: 21 x 3
##    Var1  Var2    Freq
##    <fct> <fct>  <int>
##  1 1     Obama   1219
##  2 2     Obama    519
##  3 3     Obama    451
##  4 4     Obama    174
##  5 5     Obama     47
##  6 6     Obama     61
##  7 7     Obama     18
##  8 1     Romney    15
##  9 2     Romney    86
## 10 3     Romney    35
## # ... with 11 more rows
…
